{
    "description": "Provides an element to scroll to the top of the page. Fades element out when not needed.",
    "version": "2.1",
    "requiredTheme": false,
    "mobileFriendly": true,
    "hasLocale": false,
    "settingsUrl": false,
    "settingsPermission": "Garden.Settings.Manage",
    "icon": "icon.png",
    "key": "ScrollTop",
    "type": "addon",
    "license": "GPLv3",
    "authors": [
        {
            "name": "steam",
            "email": "grandebuzon@gmail.com",
            "homepage": "https://www.planamigo.org"
        }
    ],
    "require": {
        "vanilla": ">=2.0"
    }
}